[gd_scene load_steps=2 format=2]

[ext_resource path="res://addons/upan_logic_level_graph/builtins/ready/ready.gd" type="Script" id=1]

[node name="ready" type="Node" groups=[
"level_logic",
]]
script = ExtResource( 1 )
